sh exp2.train_gouda.sh 10 0.1 1.0 phrase ../data/phrase_pairs 50 25  ../data/paragram_vectors.txt MAX
sh exp2.train_gouda.sh 10 0.001 1.0 phrase ../data/phrase_pairs 50 25  ../data/paragram_vectors.txt MAX
sh exp2.train_gouda.sh 10 0.0001 1.0 phrase ../data/phrase_pairs 50 25  ../data/paragram_vectors.txt MAX
sh exp2.train_gouda.sh 10 1e-05 1.0 phrase ../data/phrase_pairs 50 25  ../data/paragram_vectors.txt MAX
sh exp2.train_gouda.sh 0.1 0.1 1.0 phrase ../data/phrase_pairs 50 25  ../data/paragram_vectors.txt MAX
sh exp2.train_gouda.sh 0.1 0.001 1.0 phrase ../data/phrase_pairs 50 25  ../data/paragram_vectors.txt MAX
sh exp2.train_gouda.sh 0.1 0.0001 1.0 phrase ../data/phrase_pairs 50 25  ../data/paragram_vectors.txt MAX
sh exp2.train_gouda.sh 0.1 1e-05 1.0 phrase ../data/phrase_pairs 50 25  ../data/paragram_vectors.txt MAX
sh exp2.train_gouda.sh 0.001 0.1 1.0 phrase ../data/phrase_pairs 50 25  ../data/paragram_vectors.txt MAX
sh exp2.train_gouda.sh 0.001 0.001 1.0 phrase ../data/phrase_pairs 50 25  ../data/paragram_vectors.txt MAX
sh exp2.train_gouda.sh 0.001 0.0001 1.0 phrase ../data/phrase_pairs 50 25  ../data/paragram_vectors.txt MAX
sh exp2.train_gouda.sh 0.001 1e-05 1.0 phrase ../data/phrase_pairs 50 25  ../data/paragram_vectors.txt MAX
sh exp2.train_gouda.sh 1e-05 0.1 1.0 phrase ../data/phrase_pairs 50 25  ../data/paragram_vectors.txt MAX
sh exp2.train_gouda.sh 1e-05 0.001 1.0 phrase ../data/phrase_pairs 50 25  ../data/paragram_vectors.txt MAX
sh exp2.train_gouda.sh 1e-05 0.0001 1.0 phrase ../data/phrase_pairs 50 25  ../data/paragram_vectors.txt MAX
sh exp2.train_gouda.sh 1e-05 1e-05 1.0 phrase ../data/phrase_pairs 50 25  ../data/paragram_vectors.txt MAX
sh exp2.train_gouda.sh 1e-07 0.1 1.0 phrase ../data/phrase_pairs 50 25  ../data/paragram_vectors.txt MAX
sh exp2.train_gouda.sh 1e-07 0.001 1.0 phrase ../data/phrase_pairs 50 25  ../data/paragram_vectors.txt MAX
sh exp2.train_gouda.sh 1e-07 0.0001 1.0 phrase ../data/phrase_pairs 50 25  ../data/paragram_vectors.txt MAX
sh exp2.train_gouda.sh 1e-07 1e-05 1.0 phrase ../data/phrase_pairs 50 25  ../data/paragram_vectors.txt MAX
sh exp2.train_gouda.sh 10 0.1 1.0 phrase ../data/phrase_pairs 100 25  ../data/paragram_vectors.txt MAX
sh exp2.train_gouda.sh 10 0.001 1.0 phrase ../data/phrase_pairs 100 25  ../data/paragram_vectors.txt MAX
sh exp2.train_gouda.sh 10 0.0001 1.0 phrase ../data/phrase_pairs 100 25  ../data/paragram_vectors.txt MAX
sh exp2.train_gouda.sh 10 1e-05 1.0 phrase ../data/phrase_pairs 100 25  ../data/paragram_vectors.txt MAX
sh exp2.train_gouda.sh 0.1 0.1 1.0 phrase ../data/phrase_pairs 100 25  ../data/paragram_vectors.txt MAX
sh exp2.train_gouda.sh 0.1 0.001 1.0 phrase ../data/phrase_pairs 100 25  ../data/paragram_vectors.txt MAX
sh exp2.train_gouda.sh 0.1 0.0001 1.0 phrase ../data/phrase_pairs 100 25  ../data/paragram_vectors.txt MAX
sh exp2.train_gouda.sh 0.1 1e-05 1.0 phrase ../data/phrase_pairs 100 25  ../data/paragram_vectors.txt MAX
sh exp2.train_gouda.sh 0.001 0.1 1.0 phrase ../data/phrase_pairs 100 25  ../data/paragram_vectors.txt MAX
sh exp2.train_gouda.sh 0.001 0.001 1.0 phrase ../data/phrase_pairs 100 25  ../data/paragram_vectors.txt MAX
sh exp2.train_gouda.sh 0.001 0.0001 1.0 phrase ../data/phrase_pairs 100 25  ../data/paragram_vectors.txt MAX
sh exp2.train_gouda.sh 0.001 1e-05 1.0 phrase ../data/phrase_pairs 100 25  ../data/paragram_vectors.txt MAX
sh exp2.train_gouda.sh 1e-05 0.1 1.0 phrase ../data/phrase_pairs 100 25  ../data/paragram_vectors.txt MAX
sh exp2.train_gouda.sh 1e-05 0.001 1.0 phrase ../data/phrase_pairs 100 25  ../data/paragram_vectors.txt MAX
sh exp2.train_gouda.sh 1e-05 0.0001 1.0 phrase ../data/phrase_pairs 100 25  ../data/paragram_vectors.txt MAX
sh exp2.train_gouda.sh 1e-05 1e-05 1.0 phrase ../data/phrase_pairs 100 25  ../data/paragram_vectors.txt MAX
sh exp2.train_gouda.sh 1e-07 0.1 1.0 phrase ../data/phrase_pairs 100 25  ../data/paragram_vectors.txt MAX
sh exp2.train_gouda.sh 1e-07 0.001 1.0 phrase ../data/phrase_pairs 100 25  ../data/paragram_vectors.txt MAX
sh exp2.train_gouda.sh 1e-07 0.0001 1.0 phrase ../data/phrase_pairs 100 25  ../data/paragram_vectors.txt MAX
sh exp2.train_gouda.sh 1e-07 1e-05 1.0 phrase ../data/phrase_pairs 100 25  ../data/paragram_vectors.txt MAX
sh exp2.train_gouda.sh 10 0.1 1.0 phrase ../data/phrase_pairs 200 25  ../data/paragram_vectors.txt MAX
sh exp2.train_gouda.sh 10 0.001 1.0 phrase ../data/phrase_pairs 200 25  ../data/paragram_vectors.txt MAX
sh exp2.train_gouda.sh 10 0.0001 1.0 phrase ../data/phrase_pairs 200 25  ../data/paragram_vectors.txt MAX
sh exp2.train_gouda.sh 10 1e-05 1.0 phrase ../data/phrase_pairs 200 25  ../data/paragram_vectors.txt MAX
sh exp2.train_gouda.sh 0.1 0.1 1.0 phrase ../data/phrase_pairs 200 25  ../data/paragram_vectors.txt MAX
sh exp2.train_gouda.sh 0.1 0.001 1.0 phrase ../data/phrase_pairs 200 25  ../data/paragram_vectors.txt MAX
sh exp2.train_gouda.sh 0.1 0.0001 1.0 phrase ../data/phrase_pairs 200 25  ../data/paragram_vectors.txt MAX
sh exp2.train_gouda.sh 0.1 1e-05 1.0 phrase ../data/phrase_pairs 200 25  ../data/paragram_vectors.txt MAX
sh exp2.train_gouda.sh 0.001 0.1 1.0 phrase ../data/phrase_pairs 200 25  ../data/paragram_vectors.txt MAX
sh exp2.train_gouda.sh 0.001 0.001 1.0 phrase ../data/phrase_pairs 200 25  ../data/paragram_vectors.txt MAX
sh exp2.train_gouda.sh 0.001 0.0001 1.0 phrase ../data/phrase_pairs 200 25  ../data/paragram_vectors.txt MAX
sh exp2.train_gouda.sh 0.001 1e-05 1.0 phrase ../data/phrase_pairs 200 25  ../data/paragram_vectors.txt MAX
sh exp2.train_gouda.sh 1e-05 0.1 1.0 phrase ../data/phrase_pairs 200 25  ../data/paragram_vectors.txt MAX
sh exp2.train_gouda.sh 1e-05 0.001 1.0 phrase ../data/phrase_pairs 200 25  ../data/paragram_vectors.txt MAX
sh exp2.train_gouda.sh 1e-05 0.0001 1.0 phrase ../data/phrase_pairs 200 25  ../data/paragram_vectors.txt MAX
sh exp2.train_gouda.sh 1e-05 1e-05 1.0 phrase ../data/phrase_pairs 200 25  ../data/paragram_vectors.txt MAX
sh exp2.train_gouda.sh 1e-07 0.1 1.0 phrase ../data/phrase_pairs 200 25  ../data/paragram_vectors.txt MAX
sh exp2.train_gouda.sh 1e-07 0.001 1.0 phrase ../data/phrase_pairs 200 25  ../data/paragram_vectors.txt MAX
sh exp2.train_gouda.sh 1e-07 0.0001 1.0 phrase ../data/phrase_pairs 200 25  ../data/paragram_vectors.txt MAX
sh exp2.train_gouda.sh 1e-07 1e-05 1.0 phrase ../data/phrase_pairs 200 25  ../data/paragram_vectors.txt MAX
sh exp2.train_gouda.sh 10 0.1 1.0 phrase ../data/phrase_pairs 500 25  ../data/paragram_vectors.txt MAX
sh exp2.train_gouda.sh 10 0.001 1.0 phrase ../data/phrase_pairs 500 25  ../data/paragram_vectors.txt MAX
sh exp2.train_gouda.sh 10 0.0001 1.0 phrase ../data/phrase_pairs 500 25  ../data/paragram_vectors.txt MAX
sh exp2.train_gouda.sh 10 1e-05 1.0 phrase ../data/phrase_pairs 500 25  ../data/paragram_vectors.txt MAX
sh exp2.train_gouda.sh 0.1 0.1 1.0 phrase ../data/phrase_pairs 500 25  ../data/paragram_vectors.txt MAX
sh exp2.train_gouda.sh 0.1 0.001 1.0 phrase ../data/phrase_pairs 500 25  ../data/paragram_vectors.txt MAX
sh exp2.train_gouda.sh 0.1 0.0001 1.0 phrase ../data/phrase_pairs 500 25  ../data/paragram_vectors.txt MAX
sh exp2.train_gouda.sh 0.1 1e-05 1.0 phrase ../data/phrase_pairs 500 25  ../data/paragram_vectors.txt MAX
sh exp2.train_gouda.sh 0.001 0.1 1.0 phrase ../data/phrase_pairs 500 25  ../data/paragram_vectors.txt MAX
sh exp2.train_gouda.sh 0.001 0.001 1.0 phrase ../data/phrase_pairs 500 25  ../data/paragram_vectors.txt MAX
sh exp2.train_gouda.sh 0.001 0.0001 1.0 phrase ../data/phrase_pairs 500 25  ../data/paragram_vectors.txt MAX
sh exp2.train_gouda.sh 0.001 1e-05 1.0 phrase ../data/phrase_pairs 500 25  ../data/paragram_vectors.txt MAX
sh exp2.train_gouda.sh 1e-05 0.1 1.0 phrase ../data/phrase_pairs 500 25  ../data/paragram_vectors.txt MAX
sh exp2.train_gouda.sh 1e-05 0.001 1.0 phrase ../data/phrase_pairs 500 25  ../data/paragram_vectors.txt MAX
sh exp2.train_gouda.sh 1e-05 0.0001 1.0 phrase ../data/phrase_pairs 500 25  ../data/paragram_vectors.txt MAX
sh exp2.train_gouda.sh 1e-05 1e-05 1.0 phrase ../data/phrase_pairs 500 25  ../data/paragram_vectors.txt MAX
sh exp2.train_gouda.sh 1e-07 0.1 1.0 phrase ../data/phrase_pairs 500 25  ../data/paragram_vectors.txt MAX
sh exp2.train_gouda.sh 1e-07 0.001 1.0 phrase ../data/phrase_pairs 500 25  ../data/paragram_vectors.txt MAX
sh exp2.train_gouda.sh 1e-07 0.0001 1.0 phrase ../data/phrase_pairs 500 25  ../data/paragram_vectors.txt MAX
sh exp2.train_gouda.sh 1e-07 1e-05 1.0 phrase ../data/phrase_pairs 500 25  ../data/paragram_vectors.txt MAX
